<?xml version="1.0" encoding="utf-8"?>
<!-- Generator: Adobe Illustrator 24.1.0, SVG Export Plug-In . SVG Version: 6.00 Build 0)  -->
<svg version="1.1" id="Layer_1" xmlns="http://www.w3.org/2000/svg" xmlns:xlink="http://www.w3.org/1999/xlink" x="0px" y="0px"
	 viewBox="0 0 351.9 351.9" style="enable-background:new 0 0 351.9 351.9;" xml:space="preserve">
<style type="text/css">
	.st0{fill:url(#SVGID_1_);}
	.st1{fill:#34BAD9;}
	.st2{fill:#3AC5EB;}
	.st3{clip-path:url(#SVGID_3_);}
	.st4{clip-path:url(#SVGID_5_);fill:url(#SVGID_6_);}
	.st5{clip-path:url(#SVGID_8_);}
	.st6{clip-path:url(#SVGID_10_);fill:url(#SVGID_11_);}
	.st7{fill:#FFFFFF;}
	.st8{opacity:0.51;fill:#3B8DC6;}
	.st9{fill:#1F70AE;}
	.st10{opacity:0.58;fill:#3B8DC6;}
	.st11{clip-path:url(#SVGID_15_);}
	.st12{fill:#1B94D2;}
	.st13{fill:url(#SVGID_18_);}
	.st14{fill:none;stroke:#FFFFFF;stroke-miterlimit:10;stroke-dasharray:5.0452,5.0452;}
	.st15{fill:url(#SVGID_19_);}
	.st16{fill:url(#SVGID_20_);}
	.st17{fill:url(#SVGID_21_);}
	.st18{fill:url(#SVGID_22_);}
	.st19{fill:url(#SVGID_23_);}
	.st20{fill:url(#SVGID_24_);}
	.st21{fill:url(#SVGID_25_);}
	.st22{fill:url(#SVGID_26_);}
	.st23{fill:url(#SVGID_27_);}
	.st24{fill:url(#SVGID_28_);}
	.st25{fill:url(#SVGID_29_);}
	.st26{fill:#3AC5EB;stroke:#FFFFFF;stroke-width:4;stroke-miterlimit:10;}
	.st27{opacity:0.1;}
	.st28{fill:none;stroke:#FFFFFF;stroke-width:4;stroke-miterlimit:10;}
	.st29{fill:#3CC5EB;}
	.st30{fill:none;stroke:#3CC5EB;stroke-miterlimit:10;}
	.st31{fill:url(#SVGID_30_);}
	.st32{fill:url(#SVGID_31_);}
	.st33{fill:none;stroke:#1E58A2;stroke-miterlimit:10;}
	.st34{fill:none;stroke:#FFFFFF;stroke-width:5.7019;stroke-linecap:round;stroke-linejoin:round;stroke-miterlimit:10;}
	.st35{fill:#4787B0;}
	.st36{fill:#E9A071;}
	.st37{fill:#E5E5E5;}
	.st38{fill:#101534;}
	.st39{fill:#F4F4F4;}
	.st40{fill:#6CADCE;}
	.st41{clip-path:url(#SVGID_33_);fill:#101534;}
	.st42{fill:#6BB5D0;}
	.st43{clip-path:url(#SVGID_35_);fill:#101534;}
	.st44{fill:#B7DBF4;}
	.st45{fill:#494F7E;}
	.st46{fill:#EFA986;}
	.st47{fill:#5B649F;}
	.st48{fill:#2A2C47;}
	.st49{fill:#F47D58;}
	.st50{fill:#323757;}
	.st51{fill:#807167;}
	.st52{fill:#D88A51;}
	.st53{fill:#A77961;}
	.st54{fill:#D6C4BF;}
	.st55{fill:#879238;}
	.st56{fill:#49763A;}
	.st57{fill:#85BEE8;}
	.st58{fill:#D7D6D6;}
	.st59{fill:#E9E8E8;}
	.st60{fill:#C2C2C2;}
	.st61{fill:#E5F2FC;}
	.st62{fill:#5CA4DA;}
	.st63{opacity:0.83;}
	.st64{fill:#E1F1FB;}
	.st65{fill:#1A5A8D;}
	.st66{fill:#2274B5;}
	.st67{opacity:0.78;}
	.st68{fill:#5478B4;}
	.st69{fill:#5B83C3;}
	.st70{fill:#304664;}
	.st71{fill:#364D71;}
	.st72{fill:#2C3B57;}
	.st73{fill:#363B3D;}
	.st74{fill:#E45354;}
	.st75{fill:#EDDAD3;}
	.st76{fill:#C9B9B3;}
	.st77{fill:#BB5D3D;}
	.st78{fill:#DCCBC4;}
	.st79{fill:#C3BEBC;}
	.st80{opacity:0.74;}
	.st81{fill:#1E58A2;}
	.st82{fill:url(#SVGID_36_);}
	.st83{opacity:0.39;fill:none;stroke:#FFFFFF;stroke-miterlimit:10;}
	.st84{fill:#EDEFF0;}
	.st85{fill:#E9E9EA;}
	.st86{fill:#C6C7C9;}
	.st87{fill:#C3E9FB;}
	.st88{opacity:0.4;fill:#1D262D;}
	.st89{fill:#98D4F4;}
	.st90{fill:#CCE3AA;}
	.st91{fill:url(#SVGID_37_);}
	.st92{fill:url(#SVGID_38_);}
	.st93{fill:#95C8EC;}
	.st94{opacity:0.7;fill:#FFFFFF;enable-background:new    ;}
	.st95{opacity:0.5;fill:#FFFFFF;enable-background:new    ;}
	.st96{fill:none;stroke:#273339;stroke-width:0.75;stroke-linecap:round;stroke-linejoin:round;}
	.st97{fill:#273339;stroke:#273339;stroke-linecap:round;stroke-linejoin:round;}
	.st98{fill:#95C8EC;stroke:#273339;stroke-linecap:round;stroke-linejoin:round;}
	.st99{fill:#FFFFFF;stroke:#273339;stroke-linecap:round;stroke-linejoin:round;}
	.st100{fill:none;stroke:#273339;stroke-width:0.5;stroke-miterlimit:10;}
	.st101{fill:none;stroke:#273339;stroke-linecap:round;stroke-linejoin:round;}
	.st102{fill:#273339;}
	.st103{fill:none;stroke:#FFFFFF;stroke-linecap:round;stroke-linejoin:round;}
	.st104{fill:none;stroke:#273339;stroke-width:2;stroke-linecap:round;stroke-linejoin:round;}
	.st105{fill:none;stroke:#273339;stroke-width:1.5;stroke-linecap:round;stroke-linejoin:round;}
	.st106{fill:none;stroke:#FFFFFF;stroke-width:2;stroke-linecap:round;stroke-linejoin:round;}
</style>
<g>
	<rect x="2.85" y="2.85" class="st8" width="346.2" height="346.2"/>
	<g>
		<g>
			<polyline class="st34" points="74.94,148.66 74.94,74.94 93.49,74.94 93.49,94.07 			"/>
			<polyline class="st34" points="93.12,276.97 74.94,276.97 74.94,186 58.44,186 			"/>
			<polyline class="st34" points="203.01,276.97 276.97,276.97 276.97,240.56 			"/>
			<polyline class="st34" points="276.97,204.73 276.97,221.53 258.48,221.53 			"/>
			<line class="st34" x1="259.52" y1="74.94" x2="313.06" y2="74.94"/>
			<polyline class="st34" points="239.5,92.4 239.5,74.94 148.86,74.94 148.86,57.42 			"/>
			<polyline class="st34" points="114,74.94 130.45,74.94 130.45,2.85 			"/>
			<polyline class="st34" points="57.42,258.76 57.42,222.55 2.85,222.55 			"/>
			<polyline class="st34" points="112.92,259.02 112.92,294.48 202.66,294.48 202.66,276.97 			"/>
			<polyline class="st34" points="276.97,349.05 276.97,294.48 222.62,294.48 222.62,314.08 			"/>
			<line class="st34" x1="294.48" y1="240.56" x2="294.48" y2="314.08"/>
			<line class="st34" x1="294.48" y1="166.78" x2="294.48" y2="221.85"/>
			<polyline class="st34" points="276.97,111.8 276.97,166.78 258.48,166.78 258.48,93.42 93.42,93.42 93.42,258.48 258.48,258.48 
				258.48,187.21 294.48,187.21 			"/>
			<polyline class="st34" points="294.48,93.42 294.48,130.15 314.08,130.27 314.08,240.58 			"/>
			<polyline class="st34" points="257.46,57.42 205.23,57.42 205.23,20.05 			"/>
			<polyline class="st34" points="149.6,57.42 184.22,57.42 184.22,37.83 			"/>
			<polyline class="st34" points="111.96,57.42 75.94,57.42 75.94,37.83 			"/>
			<polyline class="st34" points="314.08,111.77 314.08,95.58 330.84,95.58 			"/>
			<polyline class="st34" points="129.48,37.83 93.95,37.83 93.95,20.05 			"/>
			<line class="st34" x1="183.66" y1="37.83" x2="149.6" y2="37.83"/>
			<line class="st34" x1="314.08" y1="37.83" x2="222.48" y2="37.83"/>
			<polyline class="st34" points="76.8,314.08 203.67,314.08 203.67,349.05 			"/>
			<polyline class="st34" points="37.83,276.97 37.83,259.95 20.77,259.95 			"/>
			<polyline class="st34" points="37.83,168.3 37.83,204.68 74.94,204.68 			"/>
			<polyline class="st34" points="75.49,37.83 37.83,37.83 37.83,93.42 2.85,93.42 			"/>
			<line class="st34" x1="259.8" y1="314.08" x2="239.99" y2="314.08"/>
			<line class="st34" x1="349.05" y1="314.08" x2="294.48" y2="314.08"/>
			<polyline class="st34" points="314.08,278.08 314.08,296.1 349.05,296.1 			"/>
			<line class="st34" x1="205.23" y1="20.05" x2="258.17" y2="20.05"/>
			<line class="st34" x1="149.6" y1="20.05" x2="183.66" y2="20.05"/>
			<polyline class="st34" points="93.95,20.05 57.42,20.05 57.42,2.85 			"/>
			<polyline class="st34" points="331.85,276.97 331.85,205.88 349.05,205.88 			"/>
			<line class="st34" x1="258.9" y1="331.85" x2="331.85" y2="331.85"/>
			<line class="st34" x1="203.67" y1="331.85" x2="239.99" y2="331.85"/>
			<polyline class="st34" points="58.7,331.85 166.71,331.85 166.71,349.05 			"/>
			<polyline class="st34" points="20.05,259.95 20.05,295.28 36.81,295.28 			"/>
			<line class="st34" x1="20.05" y1="148.66" x2="20.05" y2="221.53"/>
			<polyline class="st34" points="296.52,20.05 331.85,20.05 331.85,167 			"/>
			<polyline class="st34" points="349.05,167.14 349.05,2.85 2.85,2.85 2.85,349.05 295.38,349.05 349.05,349.05 349.05,186 			"/>
			<line class="st34" x1="185.69" y1="259.5" x2="185.69" y2="278.08"/>
			<line class="st34" x1="148.57" y1="259.5" x2="148.57" y2="278.08"/>
			<line class="st34" x1="294.48" y1="258.76" x2="331.85" y2="258.76"/>
			<line class="st34" x1="258.48" y1="93.42" x2="294.48" y2="93.42"/>
			<line class="st34" x1="93.49" y1="168.3" x2="37.83" y2="168.3"/>
			<line class="st34" x1="294.48" y1="149" x2="314.08" y2="149"/>
			<line class="st34" x1="130.52" y1="294.48" x2="130.52" y2="277.98"/>
			<line class="st34" x1="167.13" y1="294.48" x2="167.13" y2="277.98"/>
			<line class="st34" x1="74.94" y1="276.97" x2="74.94" y2="294.48"/>
			<line class="st34" x1="296.52" y1="57.42" x2="330.84" y2="57.42"/>
			<line class="st34" x1="149.6" y1="37.83" x2="149.6" y2="20.05"/>
			<line class="st34" x1="277.5" y1="74.91" x2="277.5" y2="2.85"/>
			<line class="st34" x1="331.85" y1="167" x2="349.05" y2="167"/>
			<line class="st34" x1="314.08" y1="186" x2="349.05" y2="186"/>
			<line class="st34" x1="37.83" y1="37.83" x2="37.83" y2="2.85"/>
			<line class="st34" x1="331.85" y1="240.58" x2="349.05" y2="240.58"/>
			<line class="st34" x1="331.85" y1="276.97" x2="349.05" y2="276.97"/>
			<line class="st34" x1="239.99" y1="314.08" x2="239.99" y2="349.05"/>
			<line class="st34" x1="239.99" y1="2.85" x2="239.99" y2="19.03"/>
			<line class="st34" x1="111.96" y1="2.85" x2="111.96" y2="19.03"/>
			<line class="st34" x1="94.22" y1="314.08" x2="94.22" y2="295.91"/>
			<line class="st34" x1="37.83" y1="276.97" x2="74.94" y2="276.97"/>
			<line class="st34" x1="57.42" y1="295.91" x2="57.42" y2="349.05"/>
			<polyline class="st34" points="2.85,314.08 38.68,314.08 38.68,349.05 			"/>
			<line class="st34" x1="20.77" y1="347.88" x2="20.77" y2="333.33"/>
			<line class="st34" x1="20.77" y1="240.66" x2="56.66" y2="240.66"/>
			<line class="st34" x1="2.85" y1="112.76" x2="57.42" y2="112.76"/>
			<polyline class="st34" points="2.85,130.91 38.59,130.91 38.59,148.66 57.42,148.66 57.42,57.42 			"/>
			<line class="st34" x1="20.05" y1="75.97" x2="2.85" y2="75.97"/>
			<line class="st34" x1="20.05" y1="21.07" x2="2.85" y2="21.07"/>
			<line class="st34" x1="19.86" y1="57.42" x2="36.81" y2="57.42"/>
			<line class="st34" x1="19.86" y1="37.83" x2="36.81" y2="37.83"/>
		</g>
	</g>
	<g>
		<g>
			<path class="st35" d="M122.7,234.02c19.74-0.65,56.79-1.5,89.28-0.07c0.57,0.02,0.57,1.29,0,1.32
				c-16.64,0.84-49.75,1.93-89.29,0.07C122.12,235.31,122.13,234.03,122.7,234.02z"/>
		</g>
		<g>
			<path class="st36" d="M221.35,141.72c-1.92,1.18-4.4,0.52-5.54-1.48c-1.14-1.99-0.5-4.56,1.42-5.74c1.92-1.18,4.4-0.52,5.54,1.48
				C223.91,137.98,223.27,140.55,221.35,141.72z"/>
			<g>
				<g>
					<path class="st37" d="M214.15,139.6l-8.45,11.04l-14.25-12.44c-1.59-1.51-3.8-1.88-5.18-0.23c-1.37,1.64-1.2,4.21,0.39,5.72
						l14.27,13.11c0.07,0.07,0.14,0.13,0.21,0.19c1.64,1.35,3.65,1.96,5.67,1.71c2.02-0.25,3.8-1.34,5.02-3.05l7.97-11.26
						c0.09-0.13,0.18-0.27,0.25-0.4c0.08-0.14,0.14-0.29,0.2-0.43l-5.58-4.59C214.49,139.16,214.31,139.37,214.15,139.6z"/>
				</g>
			</g>
			<g>
				<g>
					<polygon class="st36" points="139.05,211.16 131.11,215.65 134.67,222.3 143,217.6 					"/>
					<g>
						<path class="st38" d="M131.9,214.83l-4.1,0.95c-0.66,0.15-1,0.89-0.69,1.49l7.99,15.54c0.36,0.7,1.22,0.98,1.93,0.62l0,0
							c0.44-0.23,0.73-0.66,0.77-1.15c0.12-1.41,0.1-4.59-1.56-9.01L131.9,214.83z"/>
						<path class="st39" d="M135.22,224.09c-0.02-0.05-0.04-0.1-0.04-0.16c-0.02-0.22,0.15-0.41,0.37-0.43
							c1.37-0.1,1.98,0.93,2.11,1.49c0.05,0.22-0.08,0.43-0.3,0.49c-0.22,0.05-0.44-0.08-0.49-0.3c-0.03-0.1-0.27-0.94-1.27-0.87
							C135.44,224.31,135.29,224.22,135.22,224.09z"/>
						<path class="st39" d="M135.81,226.33c-0.02-0.05-0.04-0.1-0.04-0.16c-0.02-0.22,0.15-0.41,0.37-0.43
							c1.37-0.1,1.98,0.93,2.11,1.48c0.05,0.22-0.08,0.43-0.3,0.49c-0.22,0.05-0.44-0.08-0.49-0.29l0,0
							c-0.03-0.1-0.27-0.94-1.28-0.87C136.03,226.56,135.88,226.47,135.81,226.33z"/>
					</g>
				</g>
				<path class="st40" d="M141.26,220.63l-6.6-9.61l24.95-12.98l17.68-23.09l9.76,10.23l-18.98,19.56
					c-0.46,0.55-1.01,1.02-1.63,1.37L141.26,220.63z"/>
			</g>
			<g>
				<path class="st36" d="M200.61,128.49c-2.44,3.8-7.5,4.89-11.3,2.45c-3.8-2.44-4.89-7.5-2.45-11.3s7.5-4.89,11.3-2.45
					C201.96,119.63,203.06,124.69,200.61,128.49z"/>
				<path class="st36" d="M201.28,123.22l2.3,2.07c0.53,0.32,0.47,1.11-0.1,1.36l-2.13,0.2l-0.94-0.33L201.28,123.22z"/>
				<g>
					<g>
						<defs>
							<path id="SVGID_34_" d="M191.41,123.42l-3.8,13.02l-4.82-20.64l19.3-4.82l1.26,7l-7.83,0.92l-0.61,7.86
								c-0.08,0.84-0.9,0.91-0.9,0.91c-0.62,0.11-1.32-0.33-1.39-1.02l0.28-3.83L191.41,123.42z"/>
						</defs>
						<clipPath id="SVGID_1_">
							<use xlink:href="#SVGID_34_"  style="overflow:visible;"/>
						</clipPath>
						
							<ellipse transform="matrix(0.5129 -0.8585 0.8585 0.5129 -12.1328 226.6928)" style="clip-path:url(#SVGID_1_);fill:#101534;" cx="193.68" cy="124.04" rx="8.17" ry="8.17"/>
					</g>
				</g>
				<path class="st36" d="M192.61,123.95c-0.66,1.02-2.01,1.31-3.03,0.66c-1.02-0.66-1.31-2.01-0.66-3.03
					c0.66-1.02,2.01-1.31,3.03-0.66C192.97,121.57,193.26,122.93,192.61,123.95z"/>
				<path class="st38" d="M188.26,130.1l-1.16-2.57l0.49-7.26l5.64-2.29l6.43,0.44c5.71-2.99,0.67-8.19-3.15-4.21
					c-2.3,2.39-3.6,0.7-6.85,0.84c-3.1,0.13-5.57,3.35-4.82,6.12c0.01,0.02,0.52,3.05,0.73,4.24c0.06,0.36,0.17,0.71,0.31,1.05
					C186.24,127.31,187.04,128.92,188.26,130.1z"/>
				<path class="st36" d="M191.6,136.73l-2.13-0.66c-0.94-0.29-1.46-1.29-1.17-2.22l1.31-4.23l5.53,1.71l-1.31,4.23
					C193.54,136.5,192.54,137.02,191.6,136.73z"/>
				<g>
					<path class="st38" d="M200.29,122.9c0.08,0.38-0.16,0.76-0.54,0.84c-0.38,0.08-0.76-0.16-0.84-0.54
						c-0.08-0.38,0.16-0.76,0.54-0.84C199.83,122.27,200.21,122.52,200.29,122.9z"/>
					<path class="st38" d="M197.34,122.12c-0.15-0.09-0.26-0.25-0.29-0.43c-0.07-0.36,0.17-0.7,0.53-0.77l2.34-0.44
						c0.36-0.07,0.7,0.17,0.77,0.53c0.07,0.36-0.17,0.7-0.53,0.77l-2.34,0.44C197.65,122.25,197.48,122.21,197.34,122.12z"/>
				</g>
			</g>
			<g>
				<path class="st39" d="M171.23,176.64l18.09-0.14c0.94,0.07,1.84-0.6,2.13-1.59l4.18-24.25c1.37-6.94,2.11-13.08-3.02-14.79
					l-2.98-0.76c-6.12-1.56-10.01,4.73-11.08,12.26l-8.04,28.28C170.44,176.16,170.76,176.61,171.23,176.64z"/>
				<polygon class="st39" points="184.76,136.1 185.95,131.95 192.57,135.3 195.73,135.41 194.7,139.43 				"/>
			</g>
			<path class="st42" d="M193.83,136.67c-0.76-0.21-1.54,0.24-1.75,0.99c-0.19,0.69,0.17,1.4,0.82,1.68
				c-0.81,2.8-3.99,11.53-13.61,18.95l-0.06,5.16l4.63-0.37c0,0,9.31-12,9.55-23.62c0.64,0.02,1.24-0.39,1.42-1.04
				C195.03,137.66,194.59,136.88,193.83,136.67z"/>
			<path class="st42" d="M170.51,175.66l-0.38,4.26c-0.47,5.28,3.42,9.94,8.7,10.41l0,0c5.57,0.5,10.39-3.86,10.45-9.45l0.05-4.38
				L170.51,175.66z"/>
			<g>
				<g>
					<polygon class="st36" points="183.64,218.77 180.3,227.26 188.28,228.58 190.77,221.29 					"/>
					<g>
						<path class="st38" d="M180.3,227.26l-1.68,3.86c-0.27,0.62,0.12,1.34,0.79,1.45l17.24,2.85c0.78,0.13,1.52-0.4,1.64-1.18l0,0
							c0.08-0.49-0.09-0.98-0.46-1.3c-1.06-0.93-3.62-2.82-8.16-4.12L180.3,227.26z"/>
						<path class="st39" d="M189.72,230.12c-0.05-0.01-0.1-0.03-0.15-0.06c-0.19-0.12-0.24-0.37-0.12-0.56
							c0.74-1.16,1.93-1.03,2.45-0.81c0.2,0.09,0.3,0.32,0.21,0.53c-0.09,0.2-0.32,0.3-0.53,0.21c-0.09-0.04-0.92-0.35-1.46,0.5
							C190.03,230.08,189.87,230.14,189.72,230.12z"/>
						<path class="st39" d="M191.87,230.98c-0.05-0.01-0.1-0.03-0.15-0.06c-0.19-0.12-0.24-0.37-0.12-0.56
							c0.74-1.15,1.93-1.04,2.45-0.81c0.21,0.09,0.3,0.32,0.21,0.53c-0.09,0.2-0.32,0.3-0.53,0.21l0,0
							c-0.09-0.04-0.92-0.34-1.46,0.5C192.18,230.94,192.02,231.01,191.87,230.98z"/>
					</g>
				</g>
				<path class="st42" d="M191.86,223.76l-12.59-1.69l11.26-23.86l-17.04-11.92l10.25-9.24l17.73,14.74
					c2.07,1.67,2.77,4.5,1.73,6.95L191.86,223.76z"/>
			</g>
			<g>
				<g>
					<path class="st38" d="M186.06,173.68l-34,2.79c-1.28,0.11-2.24,1.19-2.14,2.42l1.43,17.21c0.1,1.23,1.22,2.14,2.51,2.04
						l34-2.79c1.28-0.11,2.24-1.19,2.14-2.42l-1.43-17.21C188.46,174.48,187.34,173.57,186.06,173.68z"/>
					<path class="st38" d="M169.76,183.52c-4.36,0.36-8.18-2.76-8.53-6.94c-0.35-4.19,2.91-7.88,7.27-8.24
						c4.36-0.36,8.18,2.76,8.53,6.94C177.38,179.46,174.12,183.16,169.76,183.52z M168.66,170.32c-3.22,0.26-5.62,2.99-5.37,6.08
						c0.26,3.09,3.08,5.39,6.3,5.12c3.22-0.26,5.62-2.99,5.37-6.08C174.71,172.36,171.88,170.06,168.66,170.32z"/>
				</g>
				<g>
					<g>
						<path class="st36" d="M166.74,162.14c-0.96,0.94-0.94,2.45,0.04,3.38c1.08,1.02,1.7,2,1.68,2.64c0,0.08-0.02,0.14-0.04,0.21
							l-0.28,0.42c0,0-2.64,2.73,0.76,4.26c1.93,0.53,3.27-1.28,3.75-2.09c0.01-0.02,0.03-0.05,0.04-0.07
							c0.76-1.31,1.92-4.65-2.44-8.76C169.27,161.19,167.7,161.2,166.74,162.14z"/>
					</g>
					<g>
						<path class="st39" d="M172.67,162.96l-5.49-12.98l18.01-7c2.12-0.72,3.54-2.56,2.78-4.6c-0.76-2.04-3.09-3.11-5.21-2.39
							l-18.6,6.7c-0.09,0.03-0.18,0.07-0.27,0.1c-2,0.84-3.54,2.38-4.32,4.34c-0.78,1.96-0.72,4.1,0.18,6.03l5.91,12.65
							c0.07,0.15,0.15,0.29,0.23,0.42c0.09,0.14,0.18,0.26,0.28,0.39l6.8-2.87C172.89,163.49,172.8,163.22,172.67,162.96z"/>
					</g>
				</g>
			</g>
		</g>
	</g>
</g>
</svg>
