<svg xmlns="http://www.w3.org/2000/svg" width="1442.688" height="918.075" viewBox="0 0 1442.688 918.075">
  <path id="Shape_18" data-name="Shape 18" d="M1111.25,735.141c5.923-120.847,29.624-234.89,146.979-296.915,73.42-38.805,171.342-57.051,294.357-11.146C1863.36,543.053,2009.9,64.392,2350.577,206.663,2679.611,344.07,2589.5,732.246,2219,795c-330.108,55.912-265.923,216.808-679.754,297.18C1314.568,1135.814,1101.766,928.648,1111.25,735.141Z" transform="translate(-1110.945 -179.985)" fill="#d9ecff" opacity="0.502"/>
</svg>
