<?xml version="1.0" encoding="utf-8"?>
<!-- Generator: Adobe Illustrator 24.1.0, SVG Export Plug-In . SVG Version: 6.00 Build 0)  -->
<svg version="1.1" id="Layer_1" xmlns="http://www.w3.org/2000/svg" xmlns:xlink="http://www.w3.org/1999/xlink" x="0px" y="0px"
	 viewBox="0 0 1582.59 458.63" style="enable-background:new 0 0 1582.59 458.63;" xml:space="preserve">
<style type="text/css">
	.st0{fill:url(#SVGID_1_);}
	.st1{fill:#34BAD9;}
	.st2{fill:#3AC5EB;}
	.st3{clip-path:url(#SVGID_3_);}
	.st4{clip-path:url(#SVGID_5_);fill:url(#SVGID_6_);}
	.st5{clip-path:url(#SVGID_8_);}
	.st6{clip-path:url(#SVGID_10_);fill:url(#SVGID_11_);}
	.st7{fill:#FFFFFF;}
	.st8{opacity:0.51;fill:#3B8DC6;}
	.st9{fill:#1F70AE;}
	.st10{opacity:0.58;fill:#3B8DC6;}
	.st11{clip-path:url(#SVGID_15_);}
	.st12{fill:#1B94D2;}
	.st13{fill:url(#SVGID_18_);}
	.st14{fill:none;stroke:#FFFFFF;stroke-miterlimit:10;stroke-dasharray:5.0452,5.0452;}
	.st15{fill:url(#SVGID_19_);}
	.st16{fill:url(#SVGID_20_);}
	.st17{fill:url(#SVGID_21_);}
	.st18{fill:url(#SVGID_22_);}
	.st19{fill:url(#SVGID_23_);}
	.st20{fill:url(#SVGID_24_);}
	.st21{fill:url(#SVGID_25_);}
	.st22{fill:url(#SVGID_26_);}
	.st23{fill:url(#SVGID_27_);}
	.st24{fill:url(#SVGID_28_);}
	.st25{fill:url(#SVGID_29_);}
	.st26{fill:#3AC5EB;stroke:#FFFFFF;stroke-width:4;stroke-miterlimit:10;}
	.st27{opacity:0.1;}
	.st28{fill:none;stroke:#FFFFFF;stroke-width:4;stroke-miterlimit:10;}
	.st29{fill:#3CC5EB;}
	.st30{fill:none;stroke:#3CC5EB;stroke-miterlimit:10;}
	.st31{fill:url(#SVGID_30_);}
	.st32{fill:url(#SVGID_31_);}
	.st33{fill:none;stroke:#1E58A2;stroke-miterlimit:10;}
	.st34{fill:none;stroke:#FFFFFF;stroke-width:5.7019;stroke-linecap:round;stroke-linejoin:round;stroke-miterlimit:10;}
	.st35{fill:#4787B0;}
	.st36{fill:#E9A071;}
	.st37{fill:#E5E5E5;}
	.st38{fill:#101534;}
	.st39{fill:#F4F4F4;}
	.st40{fill:#6CADCE;}
	.st41{clip-path:url(#SVGID_33_);fill:#101534;}
	.st42{fill:#6BB5D0;}
	.st43{clip-path:url(#SVGID_35_);fill:#101534;}
	.st44{fill:#B7DBF4;}
	.st45{fill:#494F7E;}
	.st46{fill:#EFA986;}
	.st47{fill:#5B649F;}
	.st48{fill:#2A2C47;}
	.st49{fill:#F47D58;}
	.st50{fill:#323757;}
	.st51{fill:#807167;}
	.st52{fill:#D88A51;}
	.st53{fill:#A77961;}
	.st54{fill:#D6C4BF;}
	.st55{fill:#879238;}
	.st56{fill:#49763A;}
	.st57{fill:#85BEE8;}
	.st58{fill:#D7D6D6;}
	.st59{fill:#E9E8E8;}
	.st60{fill:#C2C2C2;}
	.st61{fill:#E5F2FC;}
	.st62{fill:#5CA4DA;}
	.st63{opacity:0.83;}
	.st64{fill:#E1F1FB;}
	.st65{fill:#1A5A8D;}
	.st66{fill:#2274B5;}
	.st67{opacity:0.78;}
	.st68{fill:#5478B4;}
	.st69{fill:#5B83C3;}
	.st70{fill:#304664;}
	.st71{fill:#364D71;}
	.st72{fill:#2C3B57;}
	.st73{fill:#363B3D;}
	.st74{fill:#E45354;}
	.st75{fill:#EDDAD3;}
	.st76{fill:#C9B9B3;}
	.st77{fill:#BB5D3D;}
	.st78{fill:#DCCBC4;}
	.st79{fill:#C3BEBC;}
	.st80{opacity:0.74;}
	.st81{fill:#1E58A2;}
	.st82{fill:url(#SVGID_36_);}
	.st83{opacity:0.39;fill:none;stroke:#FFFFFF;stroke-miterlimit:10;}
	.st84{fill:#EDEFF0;}
	.st85{fill:#E9E9EA;}
	.st86{fill:#C6C7C9;}
	.st87{fill:#C3E9FB;}
	.st88{opacity:0.4;fill:#1D262D;}
	.st89{fill:#98D4F4;}
	.st90{fill:#CCE3AA;}
	.st91{fill:url(#SVGID_37_);}
	.st92{fill:url(#SVGID_38_);}
	.st93{fill:#95C8EC;}
	.st94{opacity:0.7;fill:#FFFFFF;enable-background:new    ;}
	.st95{opacity:0.5;fill:#FFFFFF;enable-background:new    ;}
	.st96{fill:none;stroke:#273339;stroke-width:0.75;stroke-linecap:round;stroke-linejoin:round;}
	.st97{fill:#273339;stroke:#273339;stroke-linecap:round;stroke-linejoin:round;}
	.st98{fill:#95C8EC;stroke:#273339;stroke-linecap:round;stroke-linejoin:round;}
	.st99{fill:#FFFFFF;stroke:#273339;stroke-linecap:round;stroke-linejoin:round;}
	.st100{fill:none;stroke:#273339;stroke-width:0.5;stroke-miterlimit:10;}
	.st101{fill:none;stroke:#273339;stroke-linecap:round;stroke-linejoin:round;}
	.st102{fill:#273339;}
	.st103{fill:none;stroke:#FFFFFF;stroke-linecap:round;stroke-linejoin:round;}
	.st104{fill:none;stroke:#273339;stroke-width:2;stroke-linecap:round;stroke-linejoin:round;}
	.st105{fill:none;stroke:#273339;stroke-width:1.5;stroke-linecap:round;stroke-linejoin:round;}
	.st106{fill:none;stroke:#FFFFFF;stroke-width:2;stroke-linecap:round;stroke-linejoin:round;}
</style>
<g>
	<path class="st2" d="M1255.54,458.63H28v0C28,205.34,233.34,0,486.63,0l1095.96,0v131.58
		C1582.59,312.21,1436.17,458.63,1255.54,458.63z"/>
	<linearGradient id="SVGID_1_" gradientUnits="userSpaceOnUse" x1="0" y1="229.3149" x2="1554.5898" y2="229.3149">
		<stop  offset="0.0744" style="stop-color:#3BC5EB"/>
		<stop  offset="0.1984" style="stop-color:#3FBEE7"/>
		<stop  offset="0.3973" style="stop-color:#43B0DE"/>
		<stop  offset="0.6462" style="stop-color:#4999D0"/>
		<stop  offset="0.9329" style="stop-color:#4E7BBD"/>
		<stop  offset="0.999" style="stop-color:#4F74B9"/>
		<stop  offset="1" style="stop-color:#4F74B9"/>
	</linearGradient>
	<path class="st0" d="M1242.58,458.63H0l0-146.62C0,139.69,139.69,0,312.01,0l1242.58,0v146.62
		C1554.59,318.94,1414.9,458.63,1242.58,458.63z"/>
</g>
</svg>
